{
  "main": {
    "base_url": "https://eumetview.eumetsat.int/static-images/latestImages/",
    "download_base_path": "/tmp/eumetsat-image-downloader/"
  },
  "images": {
    "full_disc": {
      "full_disc_rgb": "EUMETSAT_MSG_RGBNatColourEnhncd_LowResolution",
      "full_disc_dust": "EUMETSAT_MSG_RGBDust_LowResolution"
    },
    "europe": {
      "central_europe_rgb": "EUMETSAT_MSG_RGBNatColourEnhncd_CentralEurope",
      "central_europe_dust": "EUMETSAT_MSG_RGBDust_CentralEurope",
      "western_europe_rgb": "EUMETSAT_MSG_RGBNatColourEnhncd_WesternEurope",
      "western_europe_dust": "EUMETSAT_MSG_RGBDust_WesternEurope",
      "eastern_europe_rgb": "EUMETSAT_MSG_RGBNatColourEnhncd_EasternEurope",
      "eastern_europe_dust": "EUMETSAT_MSG_RGBDust_EasternEurope"
    },
    "africa": {
      "western_africa_rgb": "EUMETSAT_MSG_RGBNatColourEnhncd_WesternAfrica",
      "western_africa_dust": "EUMETSAT_MSG_RGBDust_WesternAfrica",
      "central_africa_rgb": "EUMETSAT_MSG_RGBNatColourEnhncd_CentralAfrica",
      "central_africa_dust": "EUMETSAT_MSG_RGBDust_CentralAfrica",
      "eastern_africa_rgb": "EUMETSAT_MSG_RGBNatColourEnhncd_EasternAfrica",
      "eastern_africa_dust": "EUMETSAT_MSG_RGBDust_EasternAfrica",
      "southern_africa_rgb": "EUMETSAT_MSG_RGBNatColourEnhncd_SouthernAfrica",
      "southern_africa_dust": "EUMETSAT_MSG_RGBDust_SouthernAfrica"
    }
  },
  "rclone": {
    "binary_path": "/usr/bin/rclone",
    "config_path": "/home/user/.config/rclone/rclone.conf",
    "move_or_copy": "move",
    "upload_base_path": "eumetsat_images/",
    "upload_target": "gdrive_business_1_crypt"
  }
}
